Dealing with Missing Data
…
## # A tibble: 6 x 3
##   variable n_miss pct_miss
##   <chr>     <int>    <dbl>
## 1 Ozone        37    24.2 
## 2 Solar.R       7     4.58
## 3 Wind          0     0   
## 4 Temp          0     0   
## 5 Month         0     0   
## 6 Day           0     0

# Summarise missingness in each case of the `airquality` dataset
miss_case_summary(airquality)

## # A tibble: 153 x 3
##     case n_miss pct_miss
##    <int>  <int>    <dbl>
##  1     5      2     33.3
##  2    27      2     33.3
##  3     6      1     16.7
##  4    10      1     16.7
##  5    11      1     16.7
##  6    25      1     16.7
##  7    26      1     16.7
##  8    32      1     16.7
##  9    33      1     16.7
## 10    34      1     16.7
## # ... with 143 more rows

# Return the summary of missingness in each variable, grouped by Month, in the `airquality` dataset
airquality %>% group_by(Month) %>% miss_var_summary()

## # A tibble: 25 x 4
##    Month variable n_miss pct_miss
##    <int> <chr>     <int>    <dbl>
##  1     5 Ozone         5     16.1
##  2     5 Solar.R       4     12.9
##  3     5 Wind          0      0  
##  4     5 Temp          0      0  
##  5     5 Day           0      0  
##  6     6 Ozone        21     70  
##  7     6 Solar.R       0      0  
##  8     6 Wind          0      0  
##  9     6 Temp          0      0  
## 10     6 Day           0      0  
## # ... with 15 more rows

# Return the summary of missingness in each case, grouped by Month, in the `airquality` dataset
airquality %>% group_by(Month) %>% miss_case_summary()

## # A tibble: 153 x 4
##    Month  case n_miss pct_miss
##    <int> <int>  <int>    <dbl>
##  1     5     5      2       40
##  2     5    27      2       40
##  3     5     6      1       20
##  4     5    10      1       20
##  5     5    11      1       20
##  6     5    25      1       20
##  7     5    26      1       20
##  8     5     1      0        0
##  9     5     2      0        0
## 10     5     3      0        0
## # ... with 143 more rows
…
Other summaries of missingness

Some summaries of missingness are particularly useful for different types of data. For example, miss_var_span() and miss_var_run().

miss_var_span() calculates the number of missing values in a specified variable for a repeating span. This is really useful in time series data, to look for weekly (7 day) patterns of missingness

miss_var_run() calculates the number of runs or streaks of missingness. This is useful to find unusual patterns of missingness, for example, you might find a repeating pattern of 5 complete and 5 missings.

Both miss_var_span() and miss_var_run() work with the group_by operator from dplyr.

# Calculate the summaries for each run of missingness for the variable, hourly_counts
miss_var_run(pedestrian, var = hourly_counts)

## # A tibble: 35 x 2
##    run_length is_na   
##         <int> <chr>   
##  1       6628 complete
##  2          1 missing 
##  3       5250 complete
##  4        624 missing 
##  5       3652 complete
##  6          1 missing 
##  7       1290 complete
##  8        744 missing 
##  9       7420 complete
## 10          1 missing 
## # ... with 25 more rows
…
# For each `month` variable, calculate the run of missingness for hourly_counts
pedestrian %>% group_by(month) %>% miss_var_run(var = hourly_counts)

## # A tibble: 51 x 3
##    month    run_length is_na   
##    <ord>         <int> <chr>   
##  1 January        2976 complete
##  2 February       2784 complete
##  3 March          2976 complete
##  4 April           888 complete
##  5 April           552 missing 
##  6 April          1440 complete
##  7 May             744 complete
##  8 May              72 missing 
##  9 May            2160 complete
## 10 June           2880 complete
## # ... with 41 more rows

# For each `month` variable, calculate the span of missingness of a span of 2000, for the variable hourly_counts
pedestrian %>% group_by(month) %>% miss_var_span(var = hourly_counts, span_every = 2000)

## # A tibble: 25 x 6
##    month    span_counter n_miss n_complete prop_miss prop_complete
##    <ord>           <int>  <int>      <dbl>     <dbl>         <dbl>
##  1 January             1      0       2000     0             1    
##  2 January             2      0       2000     0             1    
##  3 February            1      0       2000     0             1    
##  4 February            2      0       2000     0             1    
##  5 March               1      0       2000     0             1    
##  6 March               2      0       2000     0             1    
##  7 April               1    552       1448     0.276         0.724
##  8 April               2      0       2000     0             1    
##  9 May                 1     72       1928     0.036         0.964
## 10 May                 2      0       2000     0             1    
## # ... with 15 more rows
…
Missing data can be tricky to think about, as they dont usually proclaim themselves for you, and instead hide amongst the weeds of the data.

One way to help expose missing values is to change the way we think about the data - by thinking about every single data value being missing or not missing.

The as_shadow() function in R transforms a dataframe into a shadow matrix, a special data format where the values are either missing (NA), or Not Missing (!NA).

The column names of a shadow matrix are the same as the data, but have a suffix added _NA.

To keep track of and compare data values to their missingness state, use the bind_shadow() function. Having data in this format, with the shadow matrix column bound to the regular data is called nabular data.

# Create shadow matrix data with `as_shadow()`
as_shadow(oceanbuoys)

## # A tibble: 736 x 8
##    year_NA latitude_NA longitude_NA sea_temp_c_NA air_temp_c_NA humidity_NA
##    <fct>   <fct>       <fct>        <fct>         <fct>         <fct>      
##  1 !NA     !NA         !NA          !NA           !NA           !NA        
##  2 !NA     !NA         !NA          !NA           !NA           !NA        
##  3 !NA     !NA         !NA          !NA           !NA           !NA        
##  4 !NA     !NA         !NA          !NA           !NA           !NA        
##  5 !NA     !NA         !NA          !NA           !NA           !NA        
##  6 !NA     !NA         !NA          !NA           !NA           !NA        
##  7 !NA     !NA         !NA          !NA           !NA           !NA        
##  8 !NA     !NA         !NA          !NA           !NA           !NA        
##  9 !NA     !NA         !NA          !NA           !NA           !NA        
## 10 !NA     !NA         !NA          !NA           !NA           !NA        
## # ... with 726 more rows, and 2 more variables: wind_ew_NA <fct>,
## #   wind_ns_NA <fct>

# Create nabular data by binding the shadow to the data with `bind_shadow()`
bind_shadow(oceanbuoys)

## # A tibble: 736 x 16
##     year latitude longitude sea_temp_c air_temp_c humidity wind_ew wind_ns
##    <dbl>    <dbl>     <dbl>      <dbl>      <dbl>    <dbl>   <dbl>   <dbl>
##  1  1997        0      -110       27.6       27.1     79.6   -6.40    5.40
##  2  1997        0      -110       27.5       27.0     75.8   -5.30    5.30
##  3  1997        0      -110       27.6       27       76.5   -5.10    4.5 
##  4  1997        0      -110       27.6       26.9     76.2   -4.90    2.5 
##  5  1997        0      -110       27.6       26.8     76.4   -3.5     4.10
##  6  1997        0      -110       27.8       26.9     76.7   -4.40    1.60
##  7  1997        0      -110       28.0       27.0     76.5   -2       3.5 
##  8  1997        0      -110       28.0       27.1     78.3   -3.70    4.5 
##  9  1997        0      -110       28.0       27.2     78.6   -4.20    5   
## 10  1997        0      -110       28.0       27.2     76.9   -3.60    3.5 
## # ... with 726 more rows, and 8 more variables: year_NA <fct>,
## #   latitude_NA <fct>, longitude_NA <fct>, sea_temp_c_NA <fct>,
## #   air_temp_c_NA <fct>, humidity_NA <fct>, wind_ew_NA <fct>,
## #   wind_ns_NA <fct>

# Bind only the variables with missing values by using bind_shadow(only_miss = TRUE)
bind_shadow(oceanbuoys, only_miss = TRUE)

## # A tibble: 736 x 11
##     year latitude longitude sea_temp_c air_temp_c humidity wind_ew wind_ns
##    <dbl>    <dbl>     <dbl>      <dbl>      <dbl>    <dbl>   <dbl>   <dbl>
##  1  1997        0      -110       27.6       27.1     79.6   -6.40    5.40
##  2  1997        0      -110       27.5       27.0     75.8   -5.30    5.30
##  3  1997        0      -110       27.6       27       76.5   -5.10    4.5 
##  4  1997        0      -110       27.6       26.9     76.2   -4.90    2.5 
##  5  1997        0      -110       27.6       26.8     76.4   -3.5     4.10
##  6  1997        0      -110       27.8       26.9     76.7   -4.40    1.60
##  7  1997        0      -110       28.0       27.0     76.5   -2       3.5 
##  8  1997        0      -110       28.0       27.1     78.3   -3.70    4.5 
##  9  1997        0      -110       28.0       27.2     78.6   -4.20    5   
## 10  1997        0      -110       28.0       27.2     76.9   -3.60    3.5 
## # ... with 726 more rows, and 3 more variables: sea_temp_c_NA <fct>,
## #   air_temp_c_NA <fct>, humidity_NA <fct>
